<svg xmlns="http://www.w3.org/2000/svg" width="21" height="16">
    <path fill="#F2556F" fill-rule="evenodd" d="M16.278 12.707l-1.388-1.414L17.141 9H4.787V7h12.354L14.89 4.707l1.388-1.414L20.898 8l-4.62 4.707zM.861 0h1.963v16H.861V0z"/>
</svg>
