<svg xmlns="http://www.w3.org/2000/svg" width="20" height="20">
    <defs>
        <linearGradient id="a" x1="0%" x2="0%" y1="100%" y2="0%">
            <stop offset="0%" stop-color="#FFB418"/>
            <stop offset="100%" stop-color="#D808DD"/>
            <stop offset="100%" stop-color="#C84997"/>
        </linearGradient>
    </defs>
    <path fill="#261940" fill-rule="evenodd" d="M20 13v2h-2v1c0 1.102-.897 2-2 2h-1v2h-2v-2h-2v2H9v-2H7v2H5v-2H4c-1.103 0-2-.898-2-2v-1H0v-2h2v-2H0V9h2V7H0V5h2V4c0-1.103.897-2 2-2h1V0h2v2h2V0h2v2h2V0h2v2h1c1.103 0 2 .897 2 2v1h2v2h-2v2h2v2h-2v2h2zm-4-9H4v12h12.001L16 4zm-3 3v3a1 1 0 0 1-1 1H9v1h4v2H8a1 1 0 0 1-1-1v-3a1 1 0 0 1 1-1h3V8H7V6h5a1 1 0 0 1 1 1z"/>
    <path fill="url(#a)" d="M20 13v2h-2v1c0 1.102-.897 2-2 2h-1v2h-2v-2h-2v2H9v-2H7v2H5v-2H4c-1.103 0-2-.898-2-2v-1H0v-2h2v-2H0V9h2V7H0V5h2V4c0-1.103.897-2 2-2h1V0h2v2h2V0h2v2h2V0h2v2h1c1.103 0 2 .897 2 2v1h2v2h-2v2h2v2h-2v2h2zm-4-9H4v12h12.001L16 4zm-3 3v3a1 1 0 0 1-1 1H9v1h4v2H8a1 1 0 0 1-1-1v-3a1 1 0 0 1 1-1h3V8H7V6h5a1 1 0 0 1 1 1z"/>
</svg>
